module gitlab.com/bvobart/mllint

go 1.15

require (
	github.com/dustin/go-humanize v1.0.0
	github.com/fatih/color v1.10.0
	github.com/google/go-cmp v0.5.5
	github.com/pelletier/go-toml v1.8.1
	github.com/spf13/cobra v1.1.3
	github.com/stretchr/testify v1.7.0
	gopkg.in/yaml.v3 v3.0.0-20210107192922-496545a6307b
)
